{
	"info": {
		"_postman_id": "30eb5e7b-1ba6-4539-afbf-9f7316233bbb",
		"name": "Delivery Shopping",
		"schema": "https://schema.getpostman.com/json/collection/v2.1.0/collection.json",
		"_exporter_id": "4198960",
		"_collection_link": "https://www.postman.com/dark-eclipse-3994/workspace/proyectof/collection/4198960-30eb5e7b-1ba6-4539-afbf-9f7316233bbb?action=share&creator=4198960&source=collection_link"
	},
	"item": [
		{
			"name": "Create Delivery Order",
			"request": {
				"method": "POST",
				"header": [],
				"body": {
					"mode": "raw",
					"raw": "{\r\n  \"quantity\": 10,\r\n  \"status\": \"STATUS_PENDING\",\r\n  \"deliver\": {\r\n    \"id\": 1,\r\n    \"name\": \"John Doe\",\r\n    \"birthDate\": \"1990-01-01\",\r\n    \"address\": {\r\n      \"id\": 1,\r\n      \"latitude\": 40.7128,\r\n      \"longitude\": -74.0060\r\n    }\r\n  },\r\n  \"buyerAddress\": {\r\n    \"id\": 2,\r\n    \"latitude\": 40.7289,\r\n    \"longitude\": -74.0055\r\n  },\r\n  \"product\": {\r\n    \"id\": 1,\r\n    \"name\": \"Product Name\",\r\n    \"quantity\": 1\r\n  }\r\n}",
					"options": {
						"raw": {
							"language": "json"
						}
					}
				},
				"url": {
					"raw": "http://localhost:8080/delivery-orders",
					"protocol": "http",
					"host": [
						"localhost"
					],
					"port": "8080",
					"path": [
						"delivery-orders"
					]
				}
			},
			"response": []
		},
		{
			"name": "Get Delivery Order By Id",
			"request": {
				"method": "GET",
				"header": [],
				"url": {
					"raw": "http://localhost:8080/delivery-orders/1",
					"protocol": "http",
					"host": [
						"localhost"
					],
					"port": "8080",
					"path": [
						"delivery-orders",
						"1"
					]
				}
			},
			"response": []
		},
		{
			"name": "Get All Delivery Orders",
			"request": {
				"method": "GET",
				"header": [],
				"url": {
					"raw": "http://localhost:8080/delivery-orders",
					"protocol": "http",
					"host": [
						"localhost"
					],
					"port": "8080",
					"path": [
						"delivery-orders"
					]
				}
			},
			"response": []
		}
	]
}